v 16 0 54
v 16 10 54
v 8 16 54
v 0 10 54
v 0 0 54
v 16 0 30
v 0 0 30
v 0 10 30
v 8 16 30
v 16 10 30
c 1 0 0
c 1 0 0
c 1 0 0
c 1 0 0
c 1 0 0
c 1 0 0
c 1 0 0
c 1 0 0
c 1 0 0
c 1 0 0
f 0/1/2
f 4/0/2
f 4/2/3
f 0/9/1
f 0/5/9
f 2/1/9
f 2/9/8
f 7/2/8
f 7/3/2
f 6/4/7
f 7/4/3
f 4/6/5
f 4/5/0
f 6/7/8
f 6/8/5
f 5/8/9
